 

. I ._ I . .

 

Skr- ze Krista, s Kri- stom a v Kri- sto- vi

Cile" ' ...—i

 

 

 

máš ty, Bože Otče všemohúci, v jedno-te s Du- chom

U.. . .
l' ' !

Svä- tým všet- ku úc- tu a slá- vu po všet- ky

n—lď

 

. ' F- . = '

ve- ky ve- kov. Ľud: A- men.

Alebo slávnostný nápev:

Him?—

Skr- ze Krista, s Kristom a v Kri- sto- vi máš
GE; [al . :; [

ty, Bože Otče všemohúci, v jednote s Du- chom

%

Svä- tým všet- ku úc- tu a slá- vu po všet- ky

%;

ve- ky ve- kov. Ľud: A— men.

 

 

 

 

Po zvolaní l'udu kňaz položí kalich a paténu na korporál.

Nasleduje obrad prijimania (str. 446).

418 OMŠOVY PORIADOK

