 

 

 

LL...j—íal!-.Tl_—-—n—l—i

stup-nomsvet-le. Ty je- di- ný si dob-rý, ty, pra-meň

CH '—ď

..a-.jlů

 

 

 

 

života, stvo-til si všet- ko, a- by si svoje stvorenia bohato

="'-.-__-_CIEÍ

 

 

 

 

 

 

ob- da- ril po- žeh- na- ním a mnohé z nich
-.—' *
. . l . _E'ř
___—!__
o- bla- žil ja- som svoj-ho svet- la. Pre- to stoja

pred tebou nespočetné zá- stu- py an- je- lov,

 

kto- rí ti slú-žia vo dnev no- ci, hľadia na velebu

ii

 

tvo- jej tvá- re a neprestajne ťa o— sla- vu- jú.

S ni- mi aj my, anašimi ústami všet- ko tvor- stvo

._
'.IE__E___-'_i
I

pod nebom, ve- lebírne tvoje me- no a spie- va- me:

436 OMŠOVY' PORIADOK

