kým očakávame splnenie blaženej nádeje
a príchod nášho Spasiteľa Ježiša Krista.
Zopne ruky.

Ľud zakľúči modlitbu zvolaním:

Lebo tvoje je kráľovstvo a moc i sláva naveky.

 

 

 

 

hľa,—_ ._LLCLLLJ

 

Na príkaz nášho Spasi — te - ľa a po- dľa je- ho

ŠZ_._;_._

_..JlHäu—h-ä

bož-ské- ho u- če- nia o-sme-ľu-ie- mc sa po- ve-dat':

 

 

 

 

I
._! n_n—.

 

Ill

Všetci: Ot- če náš, kto- rý si na ne— be- siach,

 

 

 

 

 

;. 1F_=—! =,_.__'| -—-—. ._ď

po- svät' sa me- no tvo- je, príď krá- ľov- stvo

 

 

 

 

 

 

 

 

 

; \
l
* ' !. -—' * .Ja : Lrí =—" 4
tvo- je, buď vô- l'a tvo- ja a- ko vne- bi tak i
:: . . a L. '“ n ! i]
"" !__' ' _f- '

 

 

na ze- mi. Chlieb náš kaž- do- den- ný daj nám dnes

448 OMŠOVY PORIADOK

